{
  "users": [
    {
      "username": "Maria Ivanova",
      "password": "123456",
      "id": 1
    },
    {
      "username": "maria",
      "password": "123",
      "id": 2
    },
    {
      "username": "ana",
      "password": "123",
      "id": 3
    },
    {
      "username": "joe",
      "password": "147",
      "id": 4
    }
  ],
  "teams": [
    {
      "name": "team1",
      "members": [
        "Maria Ivanova",
        "ana"
      ],
      "id": 1
    },
    {
      "name": "team2",
      "members": [
        "joe"
      ],
      "id": 2
    }
  ]
}